{
    "criterio": "min",
    "cj": [25.0, 22.0, 0.0, 0.0, 0.0, 888888.0, 888888.0, 888888.0],
    "zk": ["L", "P", "S1", "S2", "S3", "A1", "A2", "A3"],
    "mct": [
        [0.45, 0.35, -1.0, 0.0, 0.0, 1.0, 0.0, 0.0], 
        [0.18, 0.36, 0.0, -1.0, 0.0, 0.0, 1.0, 0.0], 
        [0.30, 0.20, 0.0, 0.0, -1.0, 0.0, 0.0, 1.0]
        ],
    "b": [1260000.0 ,900000.0, 300000.0],
    "ck" : [888888.0, 888888.0, 888888.0],
    "xk": ["A1", "A2", "A3"]
}